-------------------------------------------------------------------------------
Test set: devassestment.mauriciobatlle.halifax.ObjectIntegrityTests
-------------------------------------------------------------------------------
Tests run: 3, Failures: 0, Errors: 0, Skipped: 0, Time elapsed: 3.369 s - in devassestment.mauriciobatlle.halifax.ObjectIntegrityTests
